pixelSensor_tb.vcd
$date
	Thu Nov 18 15:37:21 2021
$end
$version
	Icarus Verilog
$end
$timescale
	1ps
$end
$scope module pixelSensor_tb $end
$var wire 1 ! anaReset $end
$var wire 8 " pixData1 [7:0] $end
$var wire 8 # pixData2 [7:0] $end
$var wire 8 $ pixData3 [7:0] $end
$var wire 8 % pixData4 [7:0] $end
$var wire 1 & read4 $end
$var wire 1 ' read3 $end
$var wire 1 ( read2 $end
$var wire 1 ) read1 $end
$var wire 1 * expose $end
$var wire 1 + erase $end
$var wire 1 , convert $end
$var wire 1 - anaRamp $end
$var wire 1 . anaBias1 $end
$var reg 1 / clk $end
$var reg 8 0 data1 [7:0] $end
$var reg 8 1 data2 [7:0] $end
$var reg 8 2 data3 [7:0] $end
$var reg 8 3 data4 [7:0] $end
$var reg 8 4 pixelDataOut [7:0] $end
$var reg 4 5 read [3:0] $end
$var reg 1 6 reset $end
$scope module PixFSM $end
$var wire 1 / clk $end
$var wire 1 6 reset $end
$var reg 1 , convert $end
$var reg 1 + erase $end
$var reg 1 * expose $end
$var reg 3 7 next_state [2:0] $end
$var reg 1 ) read1 $end
$var reg 1 ( read2 $end
$var reg 1 ' read3 $end
$var reg 1 & read4 $end
$var reg 3 8 state [2:0] $end
$var integer 32 9 counter [31:0] $end
$upscope $end
$scope module pixelArr $end
$var wire 8 : DATA1 [7:0] $end
$var wire 8 ; DATA2 [7:0] $end
$var wire 8 < DATA3 [7:0] $end
$var wire 8 = DATA4 [7:0] $end
$var wire 1 + ERASE $end
$var wire 1 * EXPOSE $end
$var wire 1 - RAMP $end
$var wire 1 ) READ1 $end
$var wire 1 ( READ2 $end
$var wire 1 ' READ3 $end
$var wire 1 & READ4 $end
$var wire 1 ! RESET $end
$var wire 1 . VBN1 $end
$scope module PS1 $end
$var wire 8 > DATA [7:0] $end
$var wire 1 + ERASE $end
$var wire 1 * EXPOSE $end
$var wire 1 - RAMP $end
$var wire 1 ) READ $end
$var wire 1 ! RESET $end
$var wire 1 . VBN1 $end
$var reg 1 ? cmp $end
$var reg 8 @ p_data [7:0] $end
$var real 1 A adc $end
$var real 1 B lsb $end
$var real 1 C tmp $end
$var real 1 D v_erase $end
$upscope $end
$scope module PS2 $end
$var wire 8 E DATA [7:0] $end
$var wire 1 + ERASE $end
$var wire 1 * EXPOSE $end
$var wire 1 - RAMP $end
$var wire 1 ( READ $end
$var wire 1 ! RESET $end
$var wire 1 . VBN1 $end
$var reg 1 F cmp $end
$var reg 8 G p_data [7:0] $end
$var real 1 H adc $end
$var real 1 I lsb $end
$var real 1 J tmp $end
$var real 1 K v_erase $end
$upscope $end
$scope module PS3 $end
$var wire 8 L DATA [7:0] $end
$var wire 1 + ERASE $end
$var wire 1 * EXPOSE $end
$var wire 1 - RAMP $end
$var wire 1 ' READ $end
$var wire 1 ! RESET $end
$var wire 1 . VBN1 $end
$var reg 1 M cmp $end
$var reg 8 N p_data [7:0] $end
$var real 1 O adc $end
$var real 1 P lsb $end
$var real 1 Q tmp $end
$var real 1 R v_erase $end
$upscope $end
$scope module PS4 $end
$var wire 8 S DATA [7:0] $end
$var wire 1 + ERASE $end
$var wire 1 * EXPOSE $end
$var wire 1 - RAMP $end
$var wire 1 & READ $end
$var wire 1 ! RESET $end
$var wire 1 . VBN1 $end
$var reg 1 T cmp $end
$var reg 8 U p_data [7:0] $end
$var real 1 V adc $end
$var real 1 W lsb $end
$var real 1 X tmp $end
$var real 1 Y v_erase $end
$upscope $end
$upscope $end
$upscope $end
$enddefinitions $end
#500000
$dumpvars
r1.2 Y
r0 X
r0.004705882352941176 W
r0 V
bx U
xT
bx S
r1.2 R
r0 Q
r0.004705882352941176 P
r0 O
bx N
xM
bx L
r1.2 K
r0 J
r0.004705882352941176 I
r0 H
bx G
xF
bx E
r1.2 D
r0 C
r0.004705882352941176 B
r0 A
bx @
x?
bx >
bx =
bx <
bx ;
bx :
b0 9
b0 8
b0 7
06
bx 5
bx 4
b0 3
b0 2
b0 1
b0 0
1/
x.
0-
0,
x+
x*
x)
x(
x'
x&
bx %
bx $
bx #
bx "
1!
$end
#1000000
b0 %
b0 =
b0 S
b0 $
b0 <
b0 L
b0 #
b0 ;
b0 E
b0 "
b0 :
b0 >
0T
b0 U
r1.2 X
0M
b0 N
r1.2 Q
0F
b0 G
r1.2 J
0?
b0 @
r1.2 C
0*
0&
0'
0(
0)
1+
0.
0/
#1500000
b0 4
b1 9
1/
#2000000
0/
#2500000
b10 9
1/
#3000000
0/
#3500000
b11 9
1/
#4000000
0/
#4500000
b100 9
1/
#5000000
0/
#5500000
b101 9
1/
#6000000
0/
#6500000
b111 8
b1 7
b110 9
1/
#7000000
0+
0/
#7500000
b1 8
b0 9
1/
#8000000
1*
0/
#8500000
r1.195294117647059 X
r1.197647058823529 Q
r1.198588235294118 J
r1.199529411764706 C
1.
b1 9
1/
#9000000
0.
0/
#9500000
r1.199058823529412 C
r1.197176470588235 J
r1.195294117647059 Q
r1.190588235294118 X
1.
b10 9
1/
#10000000
0.
0/
#10500000
r1.185882352941177 X
r1.192941176470588 Q
r1.195764705882353 J
r1.198588235294117 C
1.
b11 9
1/
#11000000
0.
0/
#11500000
r1.198117647058823 C
r1.19435294117647 J
r1.190588235294117 Q
r1.181176470588235 X
1.
b100 9
1/
#12000000
0.
0/
#12500000
r1.176470588235294 X
r1.188235294117647 Q
r1.192941176470588 J
r1.197647058823529 C
1.
b101 9
1/
#13000000
0.
0/
#13500000
r1.197176470588235 C
r1.191529411764705 J
r1.185882352941176 Q
r1.171764705882353 X
1.
b110 9
1/
#14000000
0.
0/
#14500000
r1.167058823529412 X
r1.183529411764705 Q
r1.190117647058823 J
r1.19670588235294 C
1.
b111 9
1/
#15000000
0.
0/
#15500000
r1.196235294117646 C
r1.18870588235294 J
r1.181176470588235 Q
r1.162352941176471 X
1.
b1000 9
1/
#16000000
0.
0/
#16500000
r1.15764705882353 X
r1.178823529411764 Q
r1.187294117647058 J
r1.195764705882352 C
1.
b1001 9
1/
#17000000
0.
0/
#17500000
r1.195294117647058 C
r1.185882352941175 J
r1.176470588235293 Q
r1.152941176470589 X
1.
b1010 9
1/
#18000000
0.
0/
#18500000
r1.148235294117648 X
r1.174117647058823 Q
r1.184470588235293 J
r1.194823529411764 C
1.
b1011 9
1/
#19000000
0.
0/
#19500000
r1.194352941176469 C
r1.183058823529411 J
r1.171764705882352 Q
r1.143529411764707 X
1.
b1100 9
1/
#20000000
0.
0/
#20500000
r1.138823529411765 X
r1.169411764705881 Q
r1.181647058823528 J
r1.193882352941175 C
1.
b1101 9
1/
#21000000
0.
0/
#21500000
r1.193411764705881 C
r1.180235294117646 J
r1.167058823529411 Q
r1.134117647058824 X
1.
b1110 9
1/
#22000000
0.
0/
#22500000
r1.129411764705883 X
r1.16470588235294 Q
r1.178823529411763 J
r1.192941176470587 C
1.
b1111 9
1/
#23000000
0.
0/
#23500000
r1.192470588235292 C
r1.177411764705881 J
r1.162352941176469 Q
r1.124705882352942 X
1.
b10000 9
1/
#24000000
0.
0/
#24500000
r1.120000000000001 X
r1.159999999999999 Q
r1.175999999999998 J
r1.191999999999998 C
1.
b10001 9
1/
#25000000
0.
0/
#25500000
r1.191529411764704 C
r1.174588235294116 J
r1.157647058823528 Q
r1.11529411764706 X
1.
b10010 9
1/
#26000000
0.
0/
#26500000
r1.110588235294119 X
r1.155294117647057 Q
r1.173176470588233 J
r1.19105882352941 C
1.
b10011 9
1/
#27000000
0.
0/
#27500000
r1.190588235294116 C
r1.171764705882351 J
r1.152941176470587 Q
r1.105882352941178 X
1.
b10100 9
1/
#28000000
0.
0/
#28500000
r1.101176470588237 X
r1.150588235294116 Q
r1.170352941176469 J
r1.190117647058821 C
1.
b10101 9
1/
#29000000
0.
0/
#29500000
r1.189647058823527 C
r1.168941176470586 J
r1.148235294117645 Q
r1.096470588235295 X
1.
b10110 9
1/
#30000000
0.
0/
#30500000
r1.091764705882354 X
r1.145882352941175 Q
r1.167529411764704 J
r1.189176470588233 C
1.
b10111 9
1/
#31000000
0.
0/
#31500000
r1.188705882352939 C
r1.166117647058821 J
r1.143529411764704 Q
r1.087058823529413 X
1.
b11000 9
1/
#32000000
0.
0/
#32500000
r1.082352941176472 X
r1.141176470588233 Q
r1.164705882352939 J
r1.188235294117644 C
1.
b11001 9
1/
#33000000
0.
0/
#33500000
r1.18776470588235 C
r1.163294117647056 J
r1.138823529411763 Q
r1.077647058823531 X
1.
b11010 9
1/
#34000000
0.
0/
#34500000
r1.07294117647059 X
r1.136470588235292 Q
r1.161882352941174 J
r1.187294117647056 C
1.
b11011 9
1/
#35000000
0.
0/
#35500000
r1.186823529411762 C
r1.160470588235291 J
r1.134117647058821 Q
r1.068235294117649 X
1.
b11100 9
1/
#36000000
0.
0/
#36500000
r1.063529411764708 X
r1.131764705882351 Q
r1.159058823529409 J
r1.186352941176468 C
1.
b11101 9
1/
#37000000
0.
0/
#37500000
r1.185882352941173 C
r1.157647058823527 J
r1.12941176470588 Q
r1.058823529411766 X
1.
b11110 9
1/
#38000000
0.
0/
#38500000
r1.054117647058825 X
r1.127058823529409 Q
r1.156235294117644 J
r1.185411764705879 C
1.
b11111 9
1/
#39000000
0.
0/
#39500000
r1.184941176470585 C
r1.154823529411762 J
r1.124705882352939 Q
r1.049411764705884 X
1.
b100000 9
1/
#40000000
0.
0/
#40500000
r1.044705882352943 X
r1.122352941176468 Q
r1.153411764705879 J
r1.184470588235291 C
1.
b100001 9
1/
#41000000
0.
0/
#41500000
r1.183999999999996 C
r1.151999999999997 J
r1.119999999999997 Q
r1.040000000000002 X
1.
b100010 9
1/
#42000000
0.
0/
#42500000
r1.035294117647061 X
r1.117647058823527 Q
r1.150588235294114 J
r1.183529411764702 C
1.
b100011 9
1/
#43000000
0.
0/
#43500000
r1.183058823529408 C
r1.149176470588232 J
r1.115294117647056 Q
r1.03058823529412 X
1.
b100100 9
1/
#44000000
0.
0/
#44500000
r1.025882352941179 X
r1.112941176470585 Q
r1.147764705882349 J
r1.182588235294114 C
1.
b100101 9
1/
#45000000
0.
0/
#45500000
r1.182117647058819 C
r1.146352941176467 J
r1.110588235294115 Q
r1.021176470588238 X
1.
b100110 9
1/
#46000000
0.
0/
#46500000
r1.016470588235296 X
r1.108235294117644 Q
r1.144941176470585 J
r1.181647058823525 C
1.
b100111 9
1/
#47000000
0.
0/
#47500000
r1.181176470588231 C
r1.143529411764702 J
r1.105882352941173 Q
r1.011764705882355 X
1.
b101000 9
1/
#48000000
0.
0/
#48500000
r1.007058823529414 X
r1.103529411764703 Q
r1.14211764705882 J
r1.180705882352937 C
1.
b101001 9
1/
#49000000
0.
0/
#49500000
r1.180235294117643 C
r1.140705882352937 J
r1.101176470588232 Q
r1.002352941176473 X
1.
b101010 9
1/
#50000000
0.
0/
#50500000
r0.9976470588235319 X
r1.098823529411761 Q
r1.139294117647055 J
r1.179764705882348 C
1.
b101011 9
1/
#51000000
0.
0/
#51500000
r1.179294117647054 C
r1.137882352941172 J
r1.096470588235291 Q
r0.9929411764705907 X
1.
b101100 9
1/
#52000000
0.
0/
#52500000
r0.9882352941176494 X
r1.09411764705882 Q
r1.13647058823529 J
r1.17882352941176 C
1.
b101101 9
1/
#53000000
0.
0/
#53500000
r1.178352941176466 C
r1.135058823529407 J
r1.091764705882349 Q
r0.9835294117647082 X
1.
b101110 9
1/
#54000000
0.
0/
#54500000
r0.978823529411767 X
r1.089411764705879 Q
r1.133647058823525 J
r1.177882352941171 C
1.
b101111 9
1/
#55000000
0.
0/
#55500000
r1.177411764705877 C
r1.132235294117643 J
r1.087058823529408 Q
r0.9741176470588258 X
1.
b110000 9
1/
#56000000
0.
0/
#56500000
r0.9694117647058845 X
r1.084705882352937 Q
r1.13082352941176 J
r1.176941176470583 C
1.
b110001 9
1/
#57000000
0.
0/
#57500000
r1.176470588235289 C
r1.129411764705878 J
r1.082352941176467 Q
r0.9647058823529433 X
1.
b110010 9
1/
#58000000
0.
0/
#58500000
r0.9600000000000021 X
r1.079999999999996 Q
r1.127999999999995 J
r1.175999999999995 C
1.
b110011 9
1/
#59000000
0.
0/
#59500000
r1.1755294117647 C
r1.126588235294113 J
r1.077647058823525 Q
r0.9552941176470608 X
1.
b110100 9
1/
#60000000
0.
0/
#60500000
r0.9505882352941196 X
r1.075294117647055 Q
r1.12517647058823 J
r1.175058823529406 C
1.
b110101 9
1/
#61000000
0.
0/
#61500000
r1.174588235294112 C
r1.123764705882348 J
r1.072941176470584 Q
r0.9458823529411784 X
1.
b110110 9
1/
#62000000
0.
0/
#62500000
r0.9411764705882372 X
r1.070588235294113 Q
r1.122352941176465 J
r1.174117647058818 C
1.
b110111 9
1/
#63000000
0.
0/
#63500000
r1.173647058823523 C
r1.120941176470583 J
r1.068235294117643 Q
r0.9364705882352959 X
1.
b111000 9
1/
#64000000
0.
0/
#64500000
r0.9317647058823547 X
r1.065882352941172 Q
r1.119529411764701 J
r1.173176470588229 C
1.
b111001 9
1/
#65000000
0.
0/
#65500000
r1.172705882352935 C
r1.118117647058818 J
r1.063529411764701 Q
r0.9270588235294135 X
1.
b111010 9
1/
#66000000
0.
0/
#66500000
r0.9223529411764723 X
r1.061176470588231 Q
r1.116705882352936 J
r1.172235294117641 C
1.
b111011 9
1/
#67000000
0.
0/
#67500000
r1.171764705882347 C
r1.115294117647053 J
r1.05882352941176 Q
r0.917647058823531 X
1.
b111100 9
1/
#68000000
0.
0/
#68500000
r0.9129411764705898 X
r1.056470588235289 Q
r1.113882352941171 J
r1.171294117647052 C
1.
b111101 9
1/
#69000000
0.
0/
#69500000
r1.170823529411758 C
r1.112470588235288 J
r1.054117647058818 Q
r0.9082352941176486 X
1.
b111110 9
1/
#70000000
0.
0/
#70500000
r0.9035294117647074 X
r1.051764705882348 Q
r1.111058823529406 J
r1.170352941176464 C
1.
b111111 9
1/
#71000000
0.
0/
#71500000
r1.16988235294117 C
r1.109647058823523 J
r1.049411764705877 Q
r0.8988235294117661 X
1.
b1000000 9
1/
#72000000
0.
0/
#72500000
r0.8941176470588249 X
r1.047058823529406 Q
r1.108235294117641 J
r1.169411764705875 C
1.
b1000001 9
1/
#73000000
0.
0/
#73500000
r1.168941176470581 C
r1.106823529411759 J
r1.044705882352936 Q
r0.8894117647058837 X
1.
b1000010 9
1/
#74000000
0.
0/
#74500000
r0.8847058823529425 X
r1.042352941176465 Q
r1.105411764705876 J
r1.168470588235287 C
1.
b1000011 9
1/
#75000000
0.
0/
#75500000
r1.167999999999993 C
r1.103999999999994 J
r1.039999999999994 Q
r0.8800000000000012 X
1.
b1000100 9
1/
#76000000
0.
0/
#76500000
r0.87529411764706 X
r1.037647058823524 Q
r1.102588235294111 J
r1.167529411764699 C
1.
b1000101 9
1/
#77000000
0.
0/
#77500000
r1.167058823529404 C
r1.101176470588229 J
r1.035294117647053 Q
r0.8705882352941188 X
1.
b1000110 9
1/
#78000000
0.
0/
#78500000
r0.8658823529411775 X
r1.032941176470582 Q
r1.099764705882346 J
r1.16658823529411 C
1.
b1000111 9
1/
#79000000
0.
0/
#79500000
r1.166117647058816 C
r1.098352941176464 J
r1.030588235294112 Q
r0.8611764705882363 X
1.
b1001000 9
1/
#80000000
0.
0/
#80500000
r0.8564705882352951 X
r1.028235294117641 Q
r1.096941176470581 J
r1.165647058823522 C
1.
b1001001 9
1/
#81000000
0.
0/
#81500000
r1.165176470588227 C
r1.095529411764699 J
r1.02588235294117 Q
r0.8517647058823539 X
1.
b1001010 9
1/
#82000000
0.
0/
#82500000
r0.8470588235294126 X
r1.0235294117647 Q
r1.094117647058817 J
r1.164705882352933 C
1.
b1001011 9
1/
#83000000
0.
0/
#83500000
r1.164235294117639 C
r1.092705882352934 J
r1.021176470588229 Q
r0.8423529411764714 X
1.
b1001100 9
1/
#84000000
0.
0/
#84500000
r0.8376470588235302 X
r1.018823529411758 Q
r1.091294117647052 J
r1.163764705882345 C
1.
b1001101 9
1/
#85000000
0.
0/
#85500000
r1.163294117647051 C
r1.089882352941169 J
r1.016470588235288 Q
r0.832941176470589 X
1.
b1001110 9
1/
#86000000
0.
0/
#86500000
r0.8282352941176477 X
r1.014117647058817 Q
r1.088470588235287 J
r1.162823529411756 C
1.
b1001111 9
1/
#87000000
0.
0/
#87500000
r1.162352941176462 C
r1.087058823529404 J
r1.011764705882346 Q
r0.8235294117647065 X
1.
b1010000 9
1/
#88000000
0.
0/
#88500000
r0.8188235294117653 X
r1.009411764705876 Q
r1.085647058823522 J
r1.161882352941168 C
1.
b1010001 9
1/
#89000000
0.
0/
#89500000
r1.161411764705874 C
r1.084235294117639 J
r1.007058823529405 Q
r0.8141176470588241 X
1.
b1010010 9
1/
#90000000
0.
0/
#90500000
r0.8094117647058828 X
r1.004705882352934 Q
r1.082823529411757 J
r1.160941176470579 C
1.
b1010011 9
1/
#91000000
0.
0/
#91500000
r1.160470588235285 C
r1.081411764705875 J
r1.002352941176464 Q
r0.8047058823529416 X
1.
b1010100 9
1/
#92000000
0.
0/
#92500000
r0.8000000000000004 X
r0.9999999999999932 Q
r1.079999999999992 J
r1.159999999999991 C
1.
b1010101 9
1/
#93000000
0.
0/
#93500000
r1.159529411764697 C
r1.07858823529411 J
r0.9976470588235227 Q
r0.7952941176470592 X
1.
b1010110 9
1/
#94000000
0.
0/
#94500000
r0.7905882352941179 X
r0.9952941176470521 Q
r1.077176470588227 J
r1.159058823529403 C
1.
b1010111 9
1/
#95000000
0.
0/
#95500000
r1.158588235294108 C
r1.075764705882345 J
r0.9929411764705816 Q
r0.7858823529411767 X
1.
b1011000 9
1/
#96000000
0.
0/
#96500000
r0.7811764705882355 X
r0.990588235294111 Q
r1.074352941176462 J
r1.158117647058814 C
1.
b1011001 9
1/
#97000000
0.
0/
#97500000
r1.15764705882352 C
r1.07294117647058 J
r0.9882352941176404 Q
r0.7764705882352942 X
1.
b1011010 9
1/
#98000000
0.
0/
#98500000
r0.771764705882353 X
r0.9858823529411699 Q
r1.071529411764697 J
r1.157176470588226 C
1.
b1011011 9
1/
#99000000
0.
0/
#99500000
r1.156705882352931 C
r1.070117647058815 J
r0.9835294117646993 Q
r0.7670588235294118 X
1.
b1011100 9
1/
#100000000
0.
0/
#100500000
r0.7623529411764706 X
r0.9811764705882288 Q
r1.068705882352933 J
r1.156235294117637 C
1.
b1011101 9
1/
#101000000
0.
0/
#101500000
r1.155764705882343 C
r1.06729411764705 J
r0.9788235294117582 Q
r0.7576470588235293 X
1.
b1011110 9
1/
#102000000
0.
0/
#102500000
r0.7529411764705881 X
r0.9764705882352877 Q
r1.065882352941168 J
r1.155294117647049 C
1.
b1011111 9
1/
#103000000
0.
0/
#103500000
r1.154823529411755 C
r1.064470588235285 J
r0.9741176470588171 Q
r0.7482352941176469 X
1.
b1100000 9
1/
#104000000
0.
0/
#104500000
r0.7435294117647057 X
r0.9717647058823465 Q
r1.063058823529403 J
r1.15435294117646 C
1.
b1100001 9
1/
#105000000
0.
0/
#105500000
r1.153882352941166 C
r1.06164705882352 J
r0.969411764705876 Q
r0.7388235294117644 X
1.
b1100010 9
1/
#106000000
0.
0/
#106500000
r0.7341176470588232 X
r0.9670588235294054 Q
r1.060235294117638 J
r1.153411764705872 C
1.
b1100011 9
1/
#107000000
0.
0/
#107500000
r1.152941176470578 C
r1.058823529411755 J
r0.9647058823529349 Q
r0.729411764705882 X
1.
b1100100 9
1/
#108000000
0.
0/
#108500000
r0.7247058823529408 X
r0.9623529411764643 Q
r1.057411764705873 J
r1.152470588235283 C
1.
b1100101 9
1/
#109000000
0.
0/
#109500000
r1.151999999999989 C
r1.055999999999991 J
r0.9599999999999937 Q
r0.7199999999999995 X
1.
b1100110 9
1/
#110000000
0.
0/
#110500000
r0.7152941176470583 X
r0.9576470588235232 Q
r1.054588235294108 J
r1.151529411764695 C
1.
b1100111 9
1/
#111000000
0.
0/
#111500000
r1.151058823529401 C
r1.053176470588226 J
r0.9552941176470526 Q
r0.7105882352941171 X
1.
b1101000 9
1/
#112000000
0.
0/
#112500000
r0.7058823529411759 X
r0.9529411764705821 Q
r1.051764705882343 J
r1.150588235294107 C
1.
b1101001 9
1/
#113000000
0.
0/
#113500000
r1.150117647058812 C
r1.050352941176461 J
r0.9505882352941115 Q
r0.7011764705882346 X
1.
b1101010 9
1/
#114000000
0.
0/
#114500000
r0.6964705882352934 X
r0.948235294117641 Q
r1.048941176470578 J
r1.149647058823518 C
1.
b1101011 9
1/
#115000000
0.
0/
#115500000
r1.149176470588224 C
r1.047529411764696 J
r0.9458823529411704 Q
r0.6917647058823522 X
1.
b1101100 9
1/
#116000000
0.
0/
#116500000
r0.6870588235294109 X
r0.9435294117646998 Q
r1.046117647058813 J
r1.14870588235293 C
1.
b1101101 9
1/
#117000000
0.
0/
#117500000
r1.148235294117635 C
r1.044705882352931 J
r0.9411764705882293 Q
r0.6823529411764697 X
1.
b1101110 9
1/
#118000000
0.
0/
#118500000
r0.6776470588235285 X
r0.9388235294117587 Q
r1.043294117647048 J
r1.147764705882341 C
1.
b1101111 9
1/
#119000000
0.
0/
#119500000
r1.147294117647047 C
r1.041882352941166 J
r0.9364705882352882 Q
r0.6729411764705873 X
1.
b1110000 9
1/
#120000000
0.
0/
#120500000
r0.668235294117646 X
r0.9341176470588176 Q
r1.040470588235284 J
r1.146823529411753 C
1.
b1110001 9
1/
#121000000
0.
0/
#121500000
r1.146352941176459 C
r1.039058823529401 J
r0.9317647058823471 Q
r0.6635294117647048 X
1.
b1110010 9
1/
#122000000
0.
0/
#122500000
r0.6588235294117636 X
r0.9294117647058765 Q
r1.037647058823519 J
r1.145882352941164 C
1.
b1110011 9
1/
#123000000
0.
0/
#123500000
r1.14541176470587 C
r1.036235294117636 J
r0.9270588235294059 Q
r0.6541176470588224 X
1.
b1110100 9
1/
#124000000
0.
0/
#124500000
r0.6494117647058811 X
r0.9247058823529354 Q
r1.034823529411754 J
r1.144941176470576 C
1.
b1110101 9
1/
#125000000
0.
0/
#125500000
r1.144470588235282 C
r1.033411764705871 J
r0.9223529411764648 Q
r0.6447058823529399 X
1.
b1110110 9
1/
#126000000
0.
0/
#126500000
r0.6399999999999987 X
r0.9199999999999943 Q
r1.031999999999989 J
r1.143999999999987 C
1.
b1110111 9
1/
#127000000
0.
0/
#127500000
r1.143529411764693 C
r1.030588235294106 J
r0.9176470588235237 Q
r0.6352941176470575 X
1.
b1111000 9
1/
#128000000
0.
0/
#128500000
r0.6305882352941162 X
r0.9152941176470532 Q
r1.029176470588224 J
r1.143058823529399 C
1.
b1111001 9
1/
#129000000
0.
0/
#129500000
r1.142588235294105 C
r1.027764705882342 J
r0.9129411764705826 Q
r0.625882352941175 X
1.
b1111010 9
1/
#130000000
0.
0/
#130500000
r0.6211764705882338 X
r0.910588235294112 Q
r1.026352941176459 J
r1.142117647058811 C
1.
b1111011 9
1/
#131000000
0.
0/
#131500000
r1.141647058823516 C
r1.024941176470577 J
r0.9082352941176415 Q
r0.6164705882352925 X
1.
b1111100 9
1/
#132000000
0.
0/
#132500000
r0.6117647058823513 X
r0.9058823529411709 Q
r1.023529411764694 J
r1.141176470588222 C
1.
b1111101 9
1/
#133000000
0.
0/
#133500000
r1.140705882352928 C
r1.022117647058812 J
r0.9035294117647004 Q
r0.6070588235294101 X
1.
b1111110 9
1/
#134000000
0.
0/
#134500000
r0.6023529411764689 X
r0.9011764705882298 Q
r1.020705882352929 J
r1.140235294117634 C
1.
b1111111 9
1/
#135000000
0.
0/
#135500000
r1.139764705882339 C
r1.019294117647047 J
r0.8988235294117592 Q
r0.5976470588235276 X
1.
b10000000 9
1/
#136000000
0.
0/
#136500000
r0.5929411764705864 X
r0.8964705882352887 Q
r1.017882352941164 J
r1.139294117647045 C
1.
b10000001 9
1/
#137000000
0.
0/
#137500000
r1.138823529411751 C
r1.016470588235282 J
r0.8941176470588181 Q
r0.5882352941176452 X
1.
b10000010 9
1/
#138000000
0.
0/
#138500000
r0.583529411764704 X
r0.8917647058823476 Q
r1.0150588235294 J
r1.138352941176457 C
1.
b10000011 9
1/
#139000000
0.
0/
#139500000
r1.137882352941163 C
r1.013647058823517 J
r0.889411764705877 Q
r0.5788235294117627 X
1.
b10000100 9
1/
#140000000
0.
0/
#140500000
r0.5741176470588215 X
r0.8870588235294065 Q
r1.012235294117635 J
r1.137411764705868 C
1.
b10000101 9
1/
#141000000
0.
0/
#141500000
r1.136941176470574 C
r1.010823529411752 J
r0.8847058823529359 Q
r0.5694117647058803 X
1.
b10000110 9
1/
#142000000
0.
0/
#142500000
r0.5647058823529391 X
r0.8823529411764653 Q
r1.00941176470587 J
r1.13647058823528 C
1.
b10000111 9
1/
#143000000
0.
0/
#143500000
r1.135999999999986 C
r1.007999999999987 J
r0.8799999999999948 Q
r0.5599999999999978 X
1.
b10001000 9
1/
#144000000
0.
0/
#144500000
r0.5552941176470566 X
r0.8776470588235242 Q
r1.006588235294105 J
r1.135529411764691 C
1.
b10001001 9
1/
#145000000
0.
0/
#145500000
r1.135058823529397 C
r1.005176470588222 J
r0.8752941176470537 Q
r0.5505882352941154 X
1.
b10001010 9
1/
#146000000
0.
0/
#146500000
r0.5458823529411742 X
r0.8729411764705831 Q
r1.00376470588234 J
r1.134588235294103 C
1.
b10001011 9
1/
#147000000
0.
0/
#147500000
r1.134117647058809 C
r1.002352941176458 J
r0.8705882352941126 Q
r0.5411764705882329 X
1.
b10001100 9
1/
#148000000
0.
0/
#148500000
r0.5364705882352917 X
r0.868235294117642 Q
r1.000941176470575 J
r1.133647058823515 C
1.
b10001101 9
1/
#149000000
0.
0/
#149500000
r1.13317647058822 C
r0.9995294117646928 J
r0.8658823529411714 Q
r0.5317647058823505 X
1.
b10001110 9
1/
#150000000
0.
0/
#150500000
r0.5270588235294092 X
r0.8635294117647009 Q
r0.9981176470588105 J
r1.132705882352926 C
1.
b10001111 9
1/
#151000000
0.
0/
#151500000
r1.132235294117632 C
r0.9967058823529281 J
r0.8611764705882303 Q
r0.522352941176468 X
1.
b10010000 9
1/
#152000000
0.
0/
#152500000
r0.5176470588235268 X
r0.8588235294117598 Q
r0.9952941176470458 J
r1.131764705882338 C
1.
b10010001 9
1/
#153000000
0.
0/
#153500000
r1.131294117647043 C
r0.9938823529411634 J
r0.8564705882352892 Q
r0.5129411764705856 X
1.
b10010010 9
1/
#154000000
0.
0/
#154500000
r0.5082352941176443 X
r0.8541176470588187 Q
r0.9924705882352811 J
r1.130823529411749 C
1.
b10010011 9
1/
#155000000
0.
0/
#155500000
r1.130352941176455 C
r0.9910588235293988 J
r0.8517647058823481 Q
r0.5035294117647031 X
1.
b10010100 9
1/
#156000000
0.
0/
#156500000
r0.4988235294117619 X
r0.8494117647058775 Q
r0.9896470588235164 J
r1.129882352941161 C
1.
b10010101 9
1/
#157000000
0.
0/
#157500000
r1.129411764705867 C
r0.9882352941176341 J
r0.847058823529407 Q
r0.4941176470588208 X
1.
b10010110 9
1/
#158000000
0.
0/
#158500000
r0.4894117647058796 X
r0.8447058823529364 Q
r0.9868235294117518 J
r1.128941176470572 C
1.
b10010111 9
1/
#159000000
0.
0/
#159500000
r1.128470588235278 C
r0.9854117647058694 J
r0.8423529411764659 Q
r0.4847058823529384 X
1.
b10011000 9
1/
#160000000
0.
0/
#160500000
r0.4799999999999973 X
r0.8399999999999953 Q
r0.9839999999999871 J
r1.127999999999984 C
1.
b10011001 9
1/
#161000000
0.
0/
#161500000
r1.12752941176469 C
r0.9825882352941048 J
r0.8376470588235247 Q
r0.4752941176470561 X
1.
b10011010 9
1/
#162000000
0.
0/
#162500000
r0.4705882352941149 X
r0.8352941176470542 Q
r0.9811764705882224 J
r1.127058823529395 C
1.
b10011011 9
1/
#163000000
0.
0/
#163500000
r1.126588235294101 C
r0.9797647058823401 J
r0.8329411764705836 Q
r0.4658823529411737 X
1.
b10011100 9
1/
#164000000
0.
0/
#164500000
r0.4611764705882326 X
r0.8305882352941131 Q
r0.9783529411764578 J
r1.126117647058807 C
1.
b10011101 9
1/
#165000000
0.
0/
#165500000
r1.125647058823513 C
r0.9769411764705754 J
r0.8282352941176425 Q
r0.4564705882352914 X
1.
b10011110 9
1/
#166000000
0.
0/
#166500000
r0.4517647058823502 X
r0.825882352941172 Q
r0.9755294117646931 J
r1.125176470588219 C
1.
b10011111 9
1/
#167000000
0.
0/
#167500000
r1.124705882352924 C
r0.9741176470588108 J
r0.8235294117647014 Q
r0.4470588235294091 X
1.
b10100000 9
1/
#168000000
0.
0/
#168500000
r0.4423529411764679 X
r0.8211764705882308 Q
r0.9727058823529284 J
r1.12423529411763 C
1.
b10100001 9
1/
#169000000
0.
0/
#169500000
r1.123764705882336 C
r0.9712941176470461 J
r0.8188235294117603 Q
r0.4376470588235267 X
1.
b10100010 9
1/
#170000000
0.
0/
#170500000
r0.4329411764705856 X
r0.8164705882352897 Q
r0.9698823529411638 J
r1.123294117647042 C
1.
b10100011 9
1/
#171000000
0.
0/
#171500000
r1.122823529411747 C
r0.9684705882352814 J
r0.8141176470588192 Q
r0.4282352941176444 X
1.
b10100100 9
1/
#172000000
0.
0/
#172500000
r0.4235294117647032 X
r0.8117647058823486 Q
r0.9670588235293991 J
r1.122352941176453 C
1.
b10100101 9
1/
#173000000
0.
0/
#173500000
r1.121882352941159 C
r0.9656470588235168 J
r0.8094117647058781 Q
r0.418823529411762 X
1.
b10100110 9
1/
#174000000
0.
0/
#174500000
r0.4141176470588209 X
r0.8070588235294075 Q
r0.9642352941176344 J
r1.121411764705865 C
1.
b10100111 9
1/
#175000000
0.
0/
#175500000
r1.120941176470571 C
r0.9628235294117521 J
r0.8047058823529369 Q
r0.4094117647058797 X
1.
b10101000 9
1/
#176000000
0.
0/
