pixelSensor_tb.vcd
$date
	Thu Nov 18 12:09:13 2021
$end
$version
	Icarus Verilog
$end
$timescale
	1ps
$end
$scope module pixelSensor_tb $end
$var wire 1 ! anaReset $end
$var wire 1 " read4 $end
$var wire 1 # read3 $end
$var wire 1 $ read2 $end
$var wire 1 % read1 $end
$var wire 8 & pixData4 [7:0] $end
$var wire 8 ' pixData3 [7:0] $end
$var wire 8 ( pixData2 [7:0] $end
$var wire 8 ) pixData1 [7:0] $end
$var wire 1 * pixData $end
$var wire 1 + expose $end
$var wire 1 , erase $end
$var wire 1 - convert $end
$var wire 1 . anaRamp $end
$var wire 1 / anaBias1 $end
$var reg 1 0 clk $end
$var reg 8 1 data [7:0] $end
$var reg 8 2 pixelDataOut [7:0] $end
$var reg 4 3 read [3:0] $end
$var reg 1 4 reset $end
$scope module PixFSM $end
$var wire 1 0 clk $end
$var wire 1 4 reset $end
$var reg 1 - convert $end
$var reg 1 , erase $end
$var reg 1 + expose $end
$var reg 3 5 next_state [2:0] $end
$var reg 1 % read1 $end
$var reg 1 $ read2 $end
$var reg 1 # read3 $end
$var reg 1 " read4 $end
$var reg 3 6 state [2:0] $end
$var integer 32 7 counter [31:0] $end
$upscope $end
$scope module pixelArr $end
$var wire 1 , ERASE $end
$var wire 1 + EXPOSE $end
$var wire 1 . RAMP $end
$var wire 1 % READ1 $end
$var wire 1 $ READ2 $end
$var wire 1 # READ3 $end
$var wire 1 " READ4 $end
$var wire 1 ! RESET $end
$var wire 1 / VBN1 $end
$var wire 8 8 DATA4 [7:0] $end
$var wire 8 9 DATA3 [7:0] $end
$var wire 8 : DATA2 [7:0] $end
$var wire 8 ; DATA1 [7:0] $end
$scope module PS1 $end
$var wire 1 , ERASE $end
$var wire 1 + EXPOSE $end
$var wire 1 . RAMP $end
$var wire 1 % READ $end
$var wire 1 ! RESET $end
$var wire 1 / VBN1 $end
$var wire 8 < DATA [7:0] $end
$var reg 1 = cmp $end
$var reg 8 > p_data [7:0] $end
$var real 1 ? adc $end
$var real 1 @ lsb $end
$var real 1 A tmp $end
$var real 1 B v_erase $end
$upscope $end
$scope module PS2 $end
$var wire 1 , ERASE $end
$var wire 1 + EXPOSE $end
$var wire 1 . RAMP $end
$var wire 1 $ READ $end
$var wire 1 ! RESET $end
$var wire 1 / VBN1 $end
$var wire 8 C DATA [7:0] $end
$var reg 1 D cmp $end
$var reg 8 E p_data [7:0] $end
$var real 1 F adc $end
$var real 1 G lsb $end
$var real 1 H tmp $end
$var real 1 I v_erase $end
$upscope $end
$scope module PS3 $end
$var wire 1 , ERASE $end
$var wire 1 + EXPOSE $end
$var wire 1 . RAMP $end
$var wire 1 # READ $end
$var wire 1 ! RESET $end
$var wire 1 / VBN1 $end
$var wire 8 J DATA [7:0] $end
$var reg 1 K cmp $end
$var reg 8 L p_data [7:0] $end
$var real 1 M adc $end
$var real 1 N lsb $end
$var real 1 O tmp $end
$var real 1 P v_erase $end
$upscope $end
$scope module PS4 $end
$var wire 1 , ERASE $end
$var wire 1 + EXPOSE $end
$var wire 1 . RAMP $end
$var wire 1 " READ $end
$var wire 1 ! RESET $end
$var wire 1 / VBN1 $end
$var wire 8 Q DATA [7:0] $end
$var reg 1 R cmp $end
$var reg 8 S p_data [7:0] $end
$var real 1 T adc $end
$var real 1 U lsb $end
$var real 1 V tmp $end
$var real 1 W v_erase $end
$upscope $end
$upscope $end
$upscope $end
$enddefinitions $end
#500000
$dumpvars
r1.2 W
r0 V
r0.004705882352941176 U
r0 T
bx S
xR
bx Q
r1.2 P
r0 O
r0.004705882352941176 N
r0 M
bx L
xK
bx J
r1.2 I
r0 H
r0.004705882352941176 G
r0 F
bx E
xD
bx C
r1.2 B
r0 A
r0.004705882352941176 @
r0 ?
bx >
x=
bx <
bx ;
bx :
bx 9
bx 8
b0 7
b0 6
b0 5
04
bx 3
b0 2
b0 1
10
x/
0.
0-
x,
x+
x*
bx )
bx (
bx '
bx &
x%
x$
x#
x"
1!
$end
#1000000
bz &
bz 8
bz Q
bz '
bz 9
bz J
bz (
bz :
bz C
bz )
bz ;
bz <
0R
bz S
r1.2 V
0K
bz L
r1.2 O
0D
bz E
r1.2 H
0=
bz >
r1.2 A
0+
0"
0#
0$
0%
1,
0/
00
#1500000
b1 7
10
#2000000
00
#2500000
b10 7
10
#3000000
00
#3500000
b11 7
10
#4000000
00
#4500000
b100 7
10
#5000000
00
#5500000
b101 7
10
#6000000
00
#6500000
b111 6
b1 5
b110 7
10
#7000000
b0 >
b0 E
b0 L
b0 S
0,
00
#7500000
b1 6
b0 7
10
#8000000
1+
00
#8500000
r1.197647058823529 V
r1.197647058823529 O
r1.197647058823529 H
r1.197647058823529 A
1/
b1 7
10
#9000000
0/
00
#9500000
r1.195294117647059 A
r1.195294117647059 H
r1.195294117647059 O
r1.195294117647059 V
1/
b10 7
10
#10000000
0/
00
#10500000
r1.192941176470588 V
r1.192941176470588 O
r1.192941176470588 H
r1.192941176470588 A
1/
b11 7
10
#11000000
0/
00
#11500000
r1.190588235294117 A
r1.190588235294117 H
r1.190588235294117 O
r1.190588235294117 V
1/
b100 7
10
#12000000
0/
00
#12500000
r1.188235294117647 V
r1.188235294117647 O
r1.188235294117647 H
r1.188235294117647 A
1/
b101 7
10
#13000000
0/
00
#13500000
r1.185882352941176 A
r1.185882352941176 H
r1.185882352941176 O
r1.185882352941176 V
1/
b110 7
10
#14000000
0/
00
#14500000
r1.183529411764705 V
r1.183529411764705 O
r1.183529411764705 H
r1.183529411764705 A
1/
b111 7
10
#15000000
0/
00
#15500000
r1.181176470588235 A
r1.181176470588235 H
r1.181176470588235 O
r1.181176470588235 V
1/
b1000 7
10
#16000000
0/
00
#16500000
r1.178823529411764 V
r1.178823529411764 O
r1.178823529411764 H
r1.178823529411764 A
1/
b1001 7
10
#17000000
0/
00
#17500000
r1.176470588235293 A
r1.176470588235293 H
r1.176470588235293 O
r1.176470588235293 V
1/
b1010 7
10
#18000000
0/
00
#18500000
r1.174117647058823 V
r1.174117647058823 O
r1.174117647058823 H
r1.174117647058823 A
1/
b1011 7
10
#19000000
0/
00
#19500000
r1.171764705882352 A
r1.171764705882352 H
r1.171764705882352 O
r1.171764705882352 V
1/
b1100 7
10
#20000000
0/
00
#20500000
r1.169411764705881 V
r1.169411764705881 O
r1.169411764705881 H
r1.169411764705881 A
1/
b1101 7
10
#21000000
0/
00
#21500000
r1.167058823529411 A
r1.167058823529411 H
r1.167058823529411 O
r1.167058823529411 V
1/
b1110 7
10
#22000000
0/
00
#22500000
r1.16470588235294 V
r1.16470588235294 O
r1.16470588235294 H
r1.16470588235294 A
1/
b1111 7
10
#23000000
0/
00
#23500000
r1.162352941176469 A
r1.162352941176469 H
r1.162352941176469 O
r1.162352941176469 V
1/
b10000 7
10
#24000000
0/
00
#24500000
r1.159999999999999 V
r1.159999999999999 O
r1.159999999999999 H
r1.159999999999999 A
1/
b10001 7
10
#25000000
0/
00
#25500000
r1.157647058823528 A
r1.157647058823528 H
r1.157647058823528 O
r1.157647058823528 V
1/
b10010 7
10
#26000000
0/
00
#26500000
r1.155294117647057 V
r1.155294117647057 O
r1.155294117647057 H
r1.155294117647057 A
1/
b10011 7
10
#27000000
0/
00
#27500000
r1.152941176470587 A
r1.152941176470587 H
r1.152941176470587 O
r1.152941176470587 V
1/
b10100 7
10
#28000000
0/
00
#28500000
r1.150588235294116 V
r1.150588235294116 O
r1.150588235294116 H
r1.150588235294116 A
1/
b10101 7
10
#29000000
0/
00
#29500000
r1.148235294117645 A
r1.148235294117645 H
r1.148235294117645 O
r1.148235294117645 V
1/
b10110 7
10
#30000000
0/
00
#30500000
r1.145882352941175 V
r1.145882352941175 O
r1.145882352941175 H
r1.145882352941175 A
1/
b10111 7
10
#31000000
0/
00
#31500000
r1.143529411764704 A
r1.143529411764704 H
r1.143529411764704 O
r1.143529411764704 V
1/
b11000 7
10
#32000000
0/
00
#32500000
r1.141176470588233 V
r1.141176470588233 O
r1.141176470588233 H
r1.141176470588233 A
1/
b11001 7
10
#33000000
0/
00
#33500000
r1.138823529411763 A
r1.138823529411763 H
r1.138823529411763 O
r1.138823529411763 V
1/
b11010 7
10
#34000000
0/
00
#34500000
r1.136470588235292 V
r1.136470588235292 O
r1.136470588235292 H
r1.136470588235292 A
1/
b11011 7
10
#35000000
0/
00
#35500000
r1.134117647058821 A
r1.134117647058821 H
r1.134117647058821 O
r1.134117647058821 V
1/
b11100 7
10
#36000000
0/
00
#36500000
r1.131764705882351 V
r1.131764705882351 O
r1.131764705882351 H
r1.131764705882351 A
1/
b11101 7
10
#37000000
0/
00
#37500000
r1.12941176470588 A
r1.12941176470588 H
r1.12941176470588 O
r1.12941176470588 V
1/
b11110 7
10
#38000000
0/
00
#38500000
r1.127058823529409 V
r1.127058823529409 O
r1.127058823529409 H
r1.127058823529409 A
1/
b11111 7
10
#39000000
0/
00
#39500000
r1.124705882352939 A
r1.124705882352939 H
r1.124705882352939 O
r1.124705882352939 V
1/
b100000 7
10
#40000000
0/
00
#40500000
r1.122352941176468 V
r1.122352941176468 O
r1.122352941176468 H
r1.122352941176468 A
1/
b100001 7
10
#41000000
0/
00
#41500000
r1.119999999999997 A
r1.119999999999997 H
r1.119999999999997 O
r1.119999999999997 V
1/
b100010 7
10
#42000000
0/
00
#42500000
r1.117647058823527 V
r1.117647058823527 O
r1.117647058823527 H
r1.117647058823527 A
1/
b100011 7
10
#43000000
0/
00
#43500000
r1.115294117647056 A
r1.115294117647056 H
r1.115294117647056 O
r1.115294117647056 V
1/
b100100 7
10
#44000000
0/
00
#44500000
r1.112941176470585 V
r1.112941176470585 O
r1.112941176470585 H
r1.112941176470585 A
1/
b100101 7
10
#45000000
0/
00
#45500000
r1.110588235294115 A
r1.110588235294115 H
r1.110588235294115 O
r1.110588235294115 V
1/
b100110 7
10
#46000000
0/
00
#46500000
r1.108235294117644 V
r1.108235294117644 O
r1.108235294117644 H
r1.108235294117644 A
1/
b100111 7
10
#47000000
0/
00
#47500000
r1.105882352941173 A
r1.105882352941173 H
r1.105882352941173 O
r1.105882352941173 V
1/
b101000 7
10
#48000000
0/
00
#48500000
r1.103529411764703 V
r1.103529411764703 O
r1.103529411764703 H
r1.103529411764703 A
1/
b101001 7
10
#49000000
0/
00
#49500000
r1.101176470588232 A
r1.101176470588232 H
r1.101176470588232 O
r1.101176470588232 V
1/
b101010 7
10
#50000000
0/
00
#50500000
r1.098823529411761 V
r1.098823529411761 O
r1.098823529411761 H
r1.098823529411761 A
1/
b101011 7
10
#51000000
0/
00
#51500000
r1.096470588235291 A
r1.096470588235291 H
r1.096470588235291 O
r1.096470588235291 V
1/
b101100 7
10
#52000000
0/
00
#52500000
r1.09411764705882 V
r1.09411764705882 O
r1.09411764705882 H
r1.09411764705882 A
1/
b101101 7
10
#53000000
0/
00
#53500000
r1.091764705882349 A
r1.091764705882349 H
r1.091764705882349 O
r1.091764705882349 V
1/
b101110 7
10
#54000000
0/
00
#54500000
r1.089411764705879 V
r1.089411764705879 O
r1.089411764705879 H
r1.089411764705879 A
1/
b101111 7
10
#55000000
0/
00
#55500000
r1.087058823529408 A
r1.087058823529408 H
r1.087058823529408 O
r1.087058823529408 V
1/
b110000 7
10
#56000000
0/
00
#56500000
r1.084705882352937 V
r1.084705882352937 O
r1.084705882352937 H
r1.084705882352937 A
1/
b110001 7
10
#57000000
0/
00
#57500000
r1.082352941176467 A
r1.082352941176467 H
r1.082352941176467 O
r1.082352941176467 V
1/
b110010 7
10
#58000000
0/
00
#58500000
r1.079999999999996 V
r1.079999999999996 O
r1.079999999999996 H
r1.079999999999996 A
1/
b110011 7
10
#59000000
0/
00
#59500000
r1.077647058823525 A
r1.077647058823525 H
r1.077647058823525 O
r1.077647058823525 V
1/
b110100 7
10
#60000000
0/
00
#60500000
r1.075294117647055 V
r1.075294117647055 O
r1.075294117647055 H
r1.075294117647055 A
1/
b110101 7
10
#61000000
0/
00
#61500000
r1.072941176470584 A
r1.072941176470584 H
r1.072941176470584 O
r1.072941176470584 V
1/
b110110 7
10
#62000000
0/
00
#62500000
r1.070588235294113 V
r1.070588235294113 O
r1.070588235294113 H
r1.070588235294113 A
1/
b110111 7
10
#63000000
0/
00
#63500000
r1.068235294117643 A
r1.068235294117643 H
r1.068235294117643 O
r1.068235294117643 V
1/
b111000 7
10
#64000000
0/
00
#64500000
r1.065882352941172 V
r1.065882352941172 O
r1.065882352941172 H
r1.065882352941172 A
1/
b111001 7
10
#65000000
0/
00
#65500000
r1.063529411764701 A
r1.063529411764701 H
r1.063529411764701 O
r1.063529411764701 V
1/
b111010 7
10
#66000000
0/
00
#66500000
r1.061176470588231 V
r1.061176470588231 O
r1.061176470588231 H
r1.061176470588231 A
1/
b111011 7
10
#67000000
0/
00
#67500000
r1.05882352941176 A
r1.05882352941176 H
r1.05882352941176 O
r1.05882352941176 V
1/
b111100 7
10
#68000000
0/
00
#68500000
r1.056470588235289 V
r1.056470588235289 O
r1.056470588235289 H
r1.056470588235289 A
1/
b111101 7
10
#69000000
0/
00
#69500000
r1.054117647058818 A
r1.054117647058818 H
r1.054117647058818 O
r1.054117647058818 V
1/
b111110 7
10
#70000000
0/
00
#70500000
r1.051764705882348 V
r1.051764705882348 O
r1.051764705882348 H
r1.051764705882348 A
1/
b111111 7
10
#71000000
0/
00
#71500000
r1.049411764705877 A
r1.049411764705877 H
r1.049411764705877 O
r1.049411764705877 V
1/
b1000000 7
10
#72000000
0/
00
#72500000
r1.047058823529406 V
r1.047058823529406 O
r1.047058823529406 H
r1.047058823529406 A
1/
b1000001 7
10
#73000000
0/
00
#73500000
r1.044705882352936 A
r1.044705882352936 H
r1.044705882352936 O
r1.044705882352936 V
1/
b1000010 7
10
#74000000
0/
00
#74500000
r1.042352941176465 V
r1.042352941176465 O
r1.042352941176465 H
r1.042352941176465 A
1/
b1000011 7
10
#75000000
0/
00
#75500000
r1.039999999999994 A
r1.039999999999994 H
r1.039999999999994 O
r1.039999999999994 V
1/
b1000100 7
10
#76000000
0/
00
#76500000
r1.037647058823524 V
r1.037647058823524 O
r1.037647058823524 H
r1.037647058823524 A
1/
b1000101 7
10
#77000000
0/
00
#77500000
r1.035294117647053 A
r1.035294117647053 H
r1.035294117647053 O
r1.035294117647053 V
1/
b1000110 7
10
#78000000
0/
00
#78500000
r1.032941176470582 V
r1.032941176470582 O
r1.032941176470582 H
r1.032941176470582 A
1/
b1000111 7
10
#79000000
0/
00
#79500000
r1.030588235294112 A
r1.030588235294112 H
r1.030588235294112 O
r1.030588235294112 V
1/
b1001000 7
10
#80000000
0/
00
#80500000
r1.028235294117641 V
r1.028235294117641 O
r1.028235294117641 H
r1.028235294117641 A
1/
b1001001 7
10
#81000000
0/
00
#81500000
r1.02588235294117 A
r1.02588235294117 H
r1.02588235294117 O
r1.02588235294117 V
1/
b1001010 7
10
#82000000
0/
00
#82500000
r1.0235294117647 V
r1.0235294117647 O
r1.0235294117647 H
r1.0235294117647 A
1/
b1001011 7
10
#83000000
0/
00
#83500000
r1.021176470588229 A
r1.021176470588229 H
r1.021176470588229 O
r1.021176470588229 V
1/
b1001100 7
10
#84000000
0/
00
#84500000
r1.018823529411758 V
r1.018823529411758 O
r1.018823529411758 H
r1.018823529411758 A
1/
b1001101 7
10
#85000000
0/
00
#85500000
r1.016470588235288 A
r1.016470588235288 H
r1.016470588235288 O
r1.016470588235288 V
1/
b1001110 7
10
#86000000
0/
00
#86500000
r1.014117647058817 V
r1.014117647058817 O
r1.014117647058817 H
r1.014117647058817 A
1/
b1001111 7
10
#87000000
0/
00
#87500000
r1.011764705882346 A
r1.011764705882346 H
r1.011764705882346 O
r1.011764705882346 V
1/
b1010000 7
10
#88000000
0/
00
#88500000
r1.009411764705876 V
r1.009411764705876 O
r1.009411764705876 H
r1.009411764705876 A
1/
b1010001 7
10
#89000000
0/
00
#89500000
r1.007058823529405 A
r1.007058823529405 H
r1.007058823529405 O
r1.007058823529405 V
1/
b1010010 7
10
#90000000
0/
00
#90500000
r1.004705882352934 V
r1.004705882352934 O
r1.004705882352934 H
r1.004705882352934 A
1/
b1010011 7
10
#91000000
0/
00
#91500000
r1.002352941176464 A
r1.002352941176464 H
r1.002352941176464 O
r1.002352941176464 V
1/
b1010100 7
10
#92000000
0/
00
#92500000
r0.9999999999999932 V
r0.9999999999999932 O
r0.9999999999999932 H
r0.9999999999999932 A
1/
b1010101 7
10
#93000000
0/
00
#93500000
r0.9976470588235227 A
r0.9976470588235227 H
r0.9976470588235227 O
r0.9976470588235227 V
1/
b1010110 7
10
#94000000
0/
00
#94500000
r0.9952941176470521 V
r0.9952941176470521 O
r0.9952941176470521 H
r0.9952941176470521 A
1/
b1010111 7
10
#95000000
0/
00
#95500000
r0.9929411764705816 A
r0.9929411764705816 H
r0.9929411764705816 O
r0.9929411764705816 V
1/
b1011000 7
10
#96000000
0/
00
#96500000
r0.990588235294111 V
r0.990588235294111 O
r0.990588235294111 H
r0.990588235294111 A
1/
b1011001 7
10
#97000000
0/
00
#97500000
r0.9882352941176404 A
r0.9882352941176404 H
r0.9882352941176404 O
r0.9882352941176404 V
1/
b1011010 7
10
#98000000
0/
00
#98500000
r0.9858823529411699 V
r0.9858823529411699 O
r0.9858823529411699 H
r0.9858823529411699 A
1/
b1011011 7
10
#99000000
0/
00
#99500000
r0.9835294117646993 A
r0.9835294117646993 H
r0.9835294117646993 O
r0.9835294117646993 V
1/
b1011100 7
10
#100000000
0/
00
#100500000
r0.9811764705882288 V
r0.9811764705882288 O
r0.9811764705882288 H
r0.9811764705882288 A
1/
b1011101 7
10
#101000000
0/
00
#101500000
r0.9788235294117582 A
r0.9788235294117582 H
r0.9788235294117582 O
r0.9788235294117582 V
1/
b1011110 7
10
#102000000
0/
00
#102500000
r0.9764705882352877 V
r0.9764705882352877 O
r0.9764705882352877 H
r0.9764705882352877 A
1/
b1011111 7
10
#103000000
0/
00
#103500000
r0.9741176470588171 A
r0.9741176470588171 H
r0.9741176470588171 O
r0.9741176470588171 V
1/
b1100000 7
10
#104000000
0/
00
#104500000
r0.9717647058823465 V
r0.9717647058823465 O
r0.9717647058823465 H
r0.9717647058823465 A
1/
b1100001 7
10
#105000000
0/
00
#105500000
r0.969411764705876 A
r0.969411764705876 H
r0.969411764705876 O
r0.969411764705876 V
1/
b1100010 7
10
#106000000
0/
00
#106500000
r0.9670588235294054 V
r0.9670588235294054 O
r0.9670588235294054 H
r0.9670588235294054 A
1/
b1100011 7
10
#107000000
0/
00
#107500000
r0.9647058823529349 A
r0.9647058823529349 H
r0.9647058823529349 O
r0.9647058823529349 V
1/
b1100100 7
10
#108000000
0/
00
#108500000
r0.9623529411764643 V
r0.9623529411764643 O
r0.9623529411764643 H
r0.9623529411764643 A
1/
b1100101 7
10
#109000000
0/
00
#109500000
r0.9599999999999937 A
r0.9599999999999937 H
r0.9599999999999937 O
r0.9599999999999937 V
1/
b1100110 7
10
#110000000
0/
00
#110500000
r0.9576470588235232 V
r0.9576470588235232 O
r0.9576470588235232 H
r0.9576470588235232 A
1/
b1100111 7
10
#111000000
0/
00
#111500000
r0.9552941176470526 A
r0.9552941176470526 H
r0.9552941176470526 O
r0.9552941176470526 V
1/
b1101000 7
10
#112000000
0/
00
#112500000
r0.9529411764705821 V
r0.9529411764705821 O
r0.9529411764705821 H
r0.9529411764705821 A
1/
b1101001 7
10
#113000000
0/
00
#113500000
r0.9505882352941115 A
r0.9505882352941115 H
r0.9505882352941115 O
r0.9505882352941115 V
1/
b1101010 7
10
#114000000
0/
00
#114500000
r0.948235294117641 V
r0.948235294117641 O
r0.948235294117641 H
r0.948235294117641 A
1/
b1101011 7
10
#115000000
0/
00
#115500000
r0.9458823529411704 A
r0.9458823529411704 H
r0.9458823529411704 O
r0.9458823529411704 V
1/
b1101100 7
10
#116000000
0/
00
#116500000
r0.9435294117646998 V
r0.9435294117646998 O
r0.9435294117646998 H
r0.9435294117646998 A
1/
b1101101 7
10
#117000000
0/
00
#117500000
r0.9411764705882293 A
r0.9411764705882293 H
r0.9411764705882293 O
r0.9411764705882293 V
1/
b1101110 7
10
#118000000
0/
00
#118500000
r0.9388235294117587 V
r0.9388235294117587 O
r0.9388235294117587 H
r0.9388235294117587 A
1/
b1101111 7
10
#119000000
0/
00
#119500000
r0.9364705882352882 A
r0.9364705882352882 H
r0.9364705882352882 O
r0.9364705882352882 V
1/
b1110000 7
10
#120000000
0/
00
#120500000
r0.9341176470588176 V
r0.9341176470588176 O
r0.9341176470588176 H
r0.9341176470588176 A
1/
b1110001 7
10
#121000000
0/
00
#121500000
r0.9317647058823471 A
r0.9317647058823471 H
r0.9317647058823471 O
r0.9317647058823471 V
1/
b1110010 7
10
#122000000
0/
00
#122500000
r0.9294117647058765 V
r0.9294117647058765 O
r0.9294117647058765 H
r0.9294117647058765 A
1/
b1110011 7
10
#123000000
0/
00
#123500000
r0.9270588235294059 A
r0.9270588235294059 H
r0.9270588235294059 O
r0.9270588235294059 V
1/
b1110100 7
10
#124000000
0/
00
#124500000
r0.9247058823529354 V
r0.9247058823529354 O
r0.9247058823529354 H
r0.9247058823529354 A
1/
b1110101 7
10
#125000000
0/
00
#125500000
r0.9223529411764648 A
r0.9223529411764648 H
r0.9223529411764648 O
r0.9223529411764648 V
1/
b1110110 7
10
#126000000
0/
00
#126500000
r0.9199999999999943 V
r0.9199999999999943 O
r0.9199999999999943 H
r0.9199999999999943 A
1/
b1110111 7
10
#127000000
0/
00
#127500000
r0.9176470588235237 A
r0.9176470588235237 H
r0.9176470588235237 O
r0.9176470588235237 V
1/
b1111000 7
10
#128000000
0/
00
#128500000
r0.9152941176470532 V
r0.9152941176470532 O
r0.9152941176470532 H
r0.9152941176470532 A
1/
b1111001 7
10
#129000000
0/
00
#129500000
r0.9129411764705826 A
r0.9129411764705826 H
r0.9129411764705826 O
r0.9129411764705826 V
1/
b1111010 7
10
#130000000
0/
00
#130500000
r0.910588235294112 V
r0.910588235294112 O
r0.910588235294112 H
r0.910588235294112 A
1/
b1111011 7
10
#131000000
0/
00
#131500000
r0.9082352941176415 A
r0.9082352941176415 H
r0.9082352941176415 O
r0.9082352941176415 V
1/
b1111100 7
10
#132000000
0/
00
#132500000
r0.9058823529411709 V
r0.9058823529411709 O
r0.9058823529411709 H
r0.9058823529411709 A
1/
b1111101 7
10
#133000000
0/
00
#133500000
r0.9035294117647004 A
r0.9035294117647004 H
r0.9035294117647004 O
r0.9035294117647004 V
1/
b1111110 7
10
#134000000
0/
00
#134500000
r0.9011764705882298 V
r0.9011764705882298 O
r0.9011764705882298 H
r0.9011764705882298 A
1/
b1111111 7
10
#135000000
0/
00
#135500000
r0.8988235294117592 A
r0.8988235294117592 H
r0.8988235294117592 O
r0.8988235294117592 V
1/
b10000000 7
10
#136000000
0/
00
#136500000
r0.8964705882352887 V
r0.8964705882352887 O
r0.8964705882352887 H
r0.8964705882352887 A
1/
b10000001 7
10
#137000000
0/
00
#137500000
r0.8941176470588181 A
r0.8941176470588181 H
r0.8941176470588181 O
r0.8941176470588181 V
1/
b10000010 7
10
#138000000
0/
00
#138500000
r0.8917647058823476 V
r0.8917647058823476 O
r0.8917647058823476 H
r0.8917647058823476 A
1/
b10000011 7
10
#139000000
0/
00
#139500000
r0.889411764705877 A
r0.889411764705877 H
r0.889411764705877 O
r0.889411764705877 V
1/
b10000100 7
10
#140000000
0/
00
#140500000
r0.8870588235294065 V
r0.8870588235294065 O
r0.8870588235294065 H
r0.8870588235294065 A
1/
b10000101 7
10
#141000000
0/
00
#141500000
r0.8847058823529359 A
r0.8847058823529359 H
r0.8847058823529359 O
r0.8847058823529359 V
1/
b10000110 7
10
#142000000
0/
00
#142500000
r0.8823529411764653 V
r0.8823529411764653 O
r0.8823529411764653 H
r0.8823529411764653 A
1/
b10000111 7
10
#143000000
0/
00
#143500000
r0.8799999999999948 A
r0.8799999999999948 H
r0.8799999999999948 O
r0.8799999999999948 V
1/
b10001000 7
10
#144000000
0/
00
#144500000
r0.8776470588235242 V
r0.8776470588235242 O
r0.8776470588235242 H
r0.8776470588235242 A
1/
b10001001 7
10
#145000000
0/
00
#145500000
r0.8752941176470537 A
r0.8752941176470537 H
r0.8752941176470537 O
r0.8752941176470537 V
1/
b10001010 7
10
#146000000
0/
00
#146500000
r0.8729411764705831 V
r0.8729411764705831 O
r0.8729411764705831 H
r0.8729411764705831 A
1/
b10001011 7
10
#147000000
0/
00
#147500000
r0.8705882352941126 A
r0.8705882352941126 H
r0.8705882352941126 O
r0.8705882352941126 V
1/
b10001100 7
10
#148000000
0/
00
#148500000
r0.868235294117642 V
r0.868235294117642 O
r0.868235294117642 H
r0.868235294117642 A
1/
b10001101 7
10
#149000000
0/
00
#149500000
r0.8658823529411714 A
r0.8658823529411714 H
r0.8658823529411714 O
r0.8658823529411714 V
1/
b10001110 7
10
#150000000
0/
00
#150500000
r0.8635294117647009 V
r0.8635294117647009 O
r0.8635294117647009 H
r0.8635294117647009 A
1/
b10001111 7
10
#151000000
0/
00
#151500000
r0.8611764705882303 A
r0.8611764705882303 H
r0.8611764705882303 O
r0.8611764705882303 V
1/
b10010000 7
10
#152000000
0/
00
#152500000
r0.8588235294117598 V
r0.8588235294117598 O
r0.8588235294117598 H
r0.8588235294117598 A
1/
b10010001 7
10
#153000000
0/
00
#153500000
r0.8564705882352892 A
r0.8564705882352892 H
r0.8564705882352892 O
r0.8564705882352892 V
1/
b10010010 7
10
#154000000
0/
00
#154500000
r0.8541176470588187 V
r0.8541176470588187 O
r0.8541176470588187 H
r0.8541176470588187 A
1/
b10010011 7
10
#155000000
0/
00
#155500000
r0.8517647058823481 A
r0.8517647058823481 H
r0.8517647058823481 O
r0.8517647058823481 V
1/
b10010100 7
10
#156000000
0/
00
#156500000
r0.8494117647058775 V
r0.8494117647058775 O
r0.8494117647058775 H
r0.8494117647058775 A
1/
b10010101 7
10
#157000000
0/
00
#157500000
r0.847058823529407 A
r0.847058823529407 H
r0.847058823529407 O
r0.847058823529407 V
1/
b10010110 7
10
#158000000
0/
00
#158500000
r0.8447058823529364 V
r0.8447058823529364 O
r0.8447058823529364 H
r0.8447058823529364 A
1/
b10010111 7
10
#159000000
0/
00
#159500000
r0.8423529411764659 A
r0.8423529411764659 H
r0.8423529411764659 O
r0.8423529411764659 V
1/
b10011000 7
10
#160000000
0/
00
#160500000
r0.8399999999999953 V
r0.8399999999999953 O
r0.8399999999999953 H
r0.8399999999999953 A
1/
b10011001 7
10
#161000000
0/
00
#161500000
r0.8376470588235247 A
r0.8376470588235247 H
r0.8376470588235247 O
r0.8376470588235247 V
1/
b10011010 7
10
#162000000
0/
00
#162500000
r0.8352941176470542 V
r0.8352941176470542 O
r0.8352941176470542 H
r0.8352941176470542 A
1/
b10011011 7
10
#163000000
0/
00
#163500000
r0.8329411764705836 A
r0.8329411764705836 H
r0.8329411764705836 O
r0.8329411764705836 V
1/
b10011100 7
10
#164000000
0/
00
#164500000
r0.8305882352941131 V
r0.8305882352941131 O
r0.8305882352941131 H
r0.8305882352941131 A
1/
b10011101 7
10
#165000000
0/
00
#165500000
r0.8282352941176425 A
r0.8282352941176425 H
r0.8282352941176425 O
r0.8282352941176425 V
1/
b10011110 7
10
#166000000
0/
00
#166500000
r0.825882352941172 V
r0.825882352941172 O
r0.825882352941172 H
r0.825882352941172 A
1/
b10011111 7
10
#167000000
0/
00
#167500000
r0.8235294117647014 A
r0.8235294117647014 H
r0.8235294117647014 O
r0.8235294117647014 V
1/
b10100000 7
10
#168000000
0/
00
#168500000
r0.8211764705882308 V
r0.8211764705882308 O
r0.8211764705882308 H
r0.8211764705882308 A
1/
b10100001 7
10
#169000000
0/
00
#169500000
r0.8188235294117603 A
r0.8188235294117603 H
r0.8188235294117603 O
r0.8188235294117603 V
1/
b10100010 7
10
#170000000
0/
00
#170500000
r0.8164705882352897 V
r0.8164705882352897 O
r0.8164705882352897 H
r0.8164705882352897 A
1/
b10100011 7
10
#171000000
0/
00
#171500000
r0.8141176470588192 A
r0.8141176470588192 H
r0.8141176470588192 O
r0.8141176470588192 V
1/
b10100100 7
10
#172000000
0/
00
#172500000
r0.8117647058823486 V
r0.8117647058823486 O
r0.8117647058823486 H
r0.8117647058823486 A
1/
b10100101 7
10
#173000000
0/
00
#173500000
r0.8094117647058781 A
r0.8094117647058781 H
r0.8094117647058781 O
r0.8094117647058781 V
1/
b10100110 7
10
#174000000
0/
00
#174500000
r0.8070588235294075 V
r0.8070588235294075 O
r0.8070588235294075 H
r0.8070588235294075 A
1/
b10100111 7
10
#175000000
0/
00
#175500000
r0.8047058823529369 A
r0.8047058823529369 H
r0.8047058823529369 O
r0.8047058823529369 V
1/
b10101000 7
10
#176000000
0/
00
#176500000
r0.8023529411764664 V
r0.8023529411764664 O
r0.8023529411764664 H
r0.8023529411764664 A
1/
b10101001 7
10
#177000000
0/
00
#177500000
r0.7999999999999958 A
r0.7999999999999958 H
r0.7999999999999958 O
r0.7999999999999958 V
1/
b10101010 7
10
#178000000
0/
00
#178500000
r0.7976470588235253 V
r0.7976470588235253 O
r0.7976470588235253 H
r0.7976470588235253 A
1/
b10101011 7
10
#179000000
0/
00
#179500000
r0.7952941176470547 A
r0.7952941176470547 H
r0.7952941176470547 O
r0.7952941176470547 V
1/
b10101100 7
10
#180000000
0/
00
#180500000
r0.7929411764705842 V
r0.7929411764705842 O
r0.7929411764705842 H
r0.7929411764705842 A
1/
b10101101 7
10
#181000000
0/
00
#181500000
r0.7905882352941136 A
r0.7905882352941136 H
r0.7905882352941136 O
r0.7905882352941136 V
1/
b10101110 7
10
#182000000
0/
00
#182500000
r0.788235294117643 V
r0.788235294117643 O
r0.788235294117643 H
r0.788235294117643 A
1/
b10101111 7
10
